<?xml version="1.0" encoding="UTF-8"?>
<svg width="40px" height="40px" viewBox="0 0 40 40" version="1.1" xmlns="http://www.w3.org/2000/svg" xmlns:xlink="http://www.w3.org/1999/xlink">
    <g id="Intermed-2019-(Web)" stroke="none" stroke-width="1" fill="none" fill-rule="evenodd">
        <g id="icRegresarAzul">
            <g id="btn-back-inactive-40px" transform="translate(3.000000, 3.000000)">
                <rect id="Rectangle-3-Copy-7" fill="#FFFFFF" x="0" y="0" width="34" height="34" rx="17"></rect>
                <path fill="#000000" d="M13.2378641,16.3625 L17.8592233,11.2625 C18.0177995,11.0874998 18.2103558,11 18.4368932,11 C18.6634306,11 18.8559869,11.0874998 19.0145631,11.2625 L19.7621359,12.125 C19.9207121,12.3000002 20,12.5124998 20,12.7625 C20,13.0125002 19.9207121,13.2125 19.7621359,13.3625 L16.5,17 L19.7621359,20.6 C19.9207121,20.7750002 20,20.9874998 20,21.2375 C20,21.4875002 19.9207121,21.6999998 19.7621359,21.875 L19.0145631,22.7375 C18.8559869,22.9125002 18.6634306,23 18.4368932,23 C18.2103558,23 18.0177995,22.9125002 17.8592233,22.7375 L13.2378641,17.6375 C13.0792879,17.4624998 13,17.2500002 13,17 C13,16.7499998 13.0792879,16.5375002 13.2378641,16.3625 Z" id=""></path>
            </g>
        </g>
    </g>
</svg>