<?xml version="1.0" encoding="UTF-8"?>
<svg width="290px" height="30px" viewBox="0 0 290 30" version="1.1" xmlns="http://www.w3.org/2000/svg" xmlns:xlink="http://www.w3.org/1999/xlink">
    <!-- Generator: Sketch 61.2 (89653) - https://sketch.com -->
    <title>icBarraProgresoDoctor3</title>
    <desc>Created with Sketch.</desc>
    <g id="Intermed-2019-(Web)" stroke="none" stroke-width="1" fill="none" fill-rule="evenodd">
        <g id="icBarraProgreso3/5">
            <line x1="15.1530762" y1="15" x2="275" y2="14.7812338" id="Line" stroke="#FFFFFF" stroke-width="2" opacity="0.2"></line>
            <line x1="15.1530762" y1="15" x2="145" y2="15" id="Line" stroke="#77CB93" stroke-width="2"></line>
            <circle id="Oval-6-Copy-12" stroke="#55B6DA" stroke-width="2" fill="#77CB93" cx="15" cy="15" r="14"></circle>
            <circle id="Oval-6-Copy-13" stroke="#55B6DA" stroke-width="2" fill="#77CB93" cx="80" cy="15" r="14"></circle>
            <circle id="Oval-6-Copy-14" stroke="#55B6DA" stroke-width="2" fill="#55B6DA" cx="145" cy="15" r="14"></circle>
            <circle id="Oval-6-Copy-15" stroke="#55B6DA" stroke-width="2" fill="#55B6DA" cx="210" cy="15" r="14"></circle>
            <circle id="Oval-6-Copy-16" stroke="#55B6DA" stroke-width="2" fill="#55B6DA" cx="275" cy="15" r="14"></circle>
            <path d="M11.7187411,21.7499958 C12.0811785,21.7499958 12.3749896,21.4561847 12.3749896,21.0937474 L12.3749896,20 L13.468737,20 C13.8311743,20 14.1249854,19.7061889 14.1249854,19.3437516 L14.1249854,18.2500042 L15.1428167,18.2500042 C15.3054902,18.2500042 15.5252277,18.1513373 15.633294,18.0297593 L16.2898629,17.2910793 C16.58071,17.3459803 16.8806894,17.3750063 17.1874781,17.3750063 C19.845343,17.3750063 21.9999666,15.2204093 21.9999666,12.5625444 C21.9999666,9.89680219 19.8531669,7.75002921 17.1874514,7.75002921 C14.5295865,7.75002921 12.3749896,9.90465282 12.3749896,12.5625177 C12.3749896,13.0894711 12.4599846,13.5965042 12.6164631,14.0710133 L8.19220688,18.4952695 C8.0691603,18.6183428 8,18.7852888 8,18.9593378 L8,21.0937474 C8,21.4561847 8.2938111,21.7499958 8.65624844,21.7499958 L11.7187411,21.7499958 Z M18.499975,12.5625177 C17.7751003,12.5625177 17.1874781,11.9748955 17.1874781,11.2500209 C17.1874781,10.5251462 17.7751003,9.93752399 18.499975,9.93752399 C19.2248496,9.93752399 19.8124718,10.5251462 19.8124718,11.2500209 C19.8124718,11.9748955 19.2248496,12.5625177 18.499975,12.5625177 Z" id="k" fill="#FFFFFF" fill-rule="nonzero"></path>
            <path d="M86.9644252,13.0000167 C86.953477,12.9316575 86.953477,12.8632983 86.9316074,12.7976627 L85.5480276,8.64689673 C85.3702937,8.11097119 84.8698829,7.75002921 84.30389,7.75002921 L80.4374823,7.75002921 L80.4374823,13.0000167 L86.9644252,13.0000167 Z M79.5624844,13.0000167 L79.5624844,7.75002921 L75.6960766,7.75002921 C75.1300837,7.75002921 74.6296729,8.11097119 74.451939,8.64689673 L73.0683592,12.7976627 C73.0464896,12.8632983 73.0464896,12.9316575 73.0355414,13.0000167 L79.5624844,13.0000167 Z M85.6874698,21.7499958 C86.4120774,21.7499958 86.9999666,21.1621066 86.9999666,20.437499 L86.9999666,13.8750146 L73,13.8750146 L73,20.437499 C73,21.1621066 73.5878892,21.7499958 74.3124969,21.7499958 L85.6874698,21.7499958 Z" id="" fill="#FFFFFF" fill-rule="nonzero"></path>
            <path d="M146.624985,11.2500292 L146.624985,8.62502712 C146.624985,8.14103856 146.233968,7.75002921 145.749979,7.75002921 L143.999983,7.75002921 C143.515995,7.75002921 143.124985,8.14103856 143.124985,8.62502712 L143.124985,11.2500292 L146.624985,11.2500292 Z M151.437466,21.7499958 C152.162073,21.7499958 152.749962,21.1621066 152.749962,20.437499 L152.749962,10.8125219 C152.749962,10.0879143 152.162073,9.50002503 151.437466,9.50002503 L147.499975,9.50002503 L147.499975,12.1250188 L142.249987,12.1250188 L142.249987,9.50002503 L138.312497,9.50002503 C137.587889,9.50002503 137,10.0879143 137,10.8125219 L137,20.437499 C137,21.1621066 137.587889,21.7499958 138.312497,21.7499958 L151.437466,21.7499958 Z M144.874981,17.3750146 C143.909754,17.3750146 143.124985,16.5902372 143.124985,15.6250104 C143.124985,14.6597837 143.909754,13.8750146 144.874981,13.8750146 C145.840208,13.8750146 146.624985,14.6597837 146.624985,15.6250104 C146.624985,16.5902372 145.840208,17.3750146 144.874981,17.3750146 Z M147.426142,20 L142.323821,20 C142.039436,20 141.809765,19.7265632 141.897243,19.4586004 C142.124217,18.758586 142.783189,18.2500042 143.562484,18.2500042 L143.786708,18.2500042 C144.12303,18.3894463 144.489446,18.4687537 144.874981,18.4687537 C145.260516,18.4687537 145.629656,18.3894463 145.963255,18.2500042 L146.187478,18.2500042 C146.964049,18.2500042 147.623022,18.7558623 147.852719,19.4586004 C147.940198,19.7265632 147.710527,20 147.426142,20 Z" id="" fill="#FFFFFF" fill-rule="nonzero"></path>
            <path d="M216.249971,21.7499958 L216.249971,21.2031221 C216.249971,21.0219168 216.103052,20.8749979 215.921847,20.8749979 L215.374973,20.8749979 L215.374973,8.40627764 C215.374973,8.0438403 215.081162,7.75002921 214.718724,7.75002921 L205.531246,7.75002921 C205.168809,7.75002921 204.874998,8.0438403 204.874998,8.40627764 L204.874998,20.8749979 L204.328124,20.8749979 C204.146919,20.8749979 204,21.0219168 204,21.2031221 L204,21.7499958 L216.249971,21.7499958 Z M208.921863,11.2500209 L207.828116,11.2500209 C207.646911,11.2500209 207.499992,11.103102 207.499992,10.9218966 L207.499992,9.82814925 C207.499992,9.64694393 207.646911,9.50002503 207.828116,9.50002503 L208.921863,9.50002503 C209.103069,9.50002503 209.249987,9.64694393 209.249987,9.82814925 L209.249987,10.9218966 C209.249987,11.103102 209.103069,11.2500209 208.921863,11.2500209 Z M212.421855,11.2500209 L211.328108,11.2500209 C211.146902,11.2500209 210.999983,11.103102 210.999983,10.9218966 L210.999983,9.82814925 C210.999983,9.64694393 211.146902,9.50002503 211.328108,9.50002503 L212.421855,9.50002503 C212.60306,9.50002503 212.749979,9.64694393 212.749979,9.82814925 L212.749979,10.9218966 C212.749979,11.103102 212.60306,11.2500209 212.421855,11.2500209 Z M208.921863,13.8750146 L207.828116,13.8750146 C207.646911,13.8750146 207.499992,13.7280957 207.499992,13.5468904 L207.499992,12.453143 C207.499992,12.2719377 207.646911,12.1250188 207.828116,12.1250188 L208.921863,12.1250188 C209.103069,12.1250188 209.249987,12.2719377 209.249987,12.453143 L209.249987,13.5468904 C209.249987,13.7280957 209.103069,13.8750146 208.921863,13.8750146 Z M212.421855,13.8750146 L211.328108,13.8750146 C211.146902,13.8750146 210.999983,13.7280957 210.999983,13.5468904 L210.999983,12.453143 C210.999983,12.2719377 211.146902,12.1250188 211.328108,12.1250188 L212.421855,12.1250188 C212.60306,12.1250188 212.749979,12.2719377 212.749979,12.453143 L212.749979,13.5468904 C212.749979,13.7280957 212.60306,13.8750146 212.421855,13.8750146 Z M208.921863,16.5000083 L207.828116,16.5000083 C207.646911,16.5000083 207.499992,16.3530894 207.499992,16.1718841 L207.499992,15.0781367 C207.499992,14.8969314 207.646911,14.7500125 207.828116,14.7500125 L208.921863,14.7500125 C209.103069,14.7500125 209.249987,14.8969314 209.249987,15.0781367 L209.249987,16.1718841 C209.249987,16.3530894 209.103069,16.5000083 208.921863,16.5000083 Z M212.421855,16.5000083 L211.328108,16.5000083 C211.146902,16.5000083 210.999983,16.3530894 210.999983,16.1718841 L210.999983,15.0781367 C210.999983,14.8969314 211.146902,14.7500125 211.328108,14.7500125 L212.421855,14.7500125 C212.60306,14.7500125 212.749979,14.8969314 212.749979,15.0781367 L212.749979,16.1718841 C212.749979,16.3530894 212.60306,16.5000083 212.421855,16.5000083 Z M210.999983,20.8749979 L209.249987,20.8749979 L209.249987,18.5781284 C209.249987,18.3969231 209.396906,18.2500042 209.578112,18.2500042 L210.671859,18.2500042 C210.853064,18.2500042 210.999983,18.3969231 210.999983,18.5781284 L210.999983,20.8749979 Z" id="" fill="#FFFFFF" fill-rule="nonzero" opacity="0.2"></path>
            <path d="M274.999983,21.5312463 C278.746068,21.5312463 281.781217,18.4960973 281.781217,14.7500125 C281.781217,11.0039277 278.746068,7.96877868 274.999983,7.96877868 C271.253898,7.96877868 268.218749,11.0039277 268.218749,14.7500125 C268.218749,18.4960973 271.253898,21.5312463 274.999983,21.5312463 Z M276.561297,17.5417921 L274.149605,15.7890725 C274.064824,15.7261874 274.015611,15.6277341 274.015611,15.5238335 L274.015611,10.9218966 C274.015611,10.741439 274.163277,10.5937724 274.343735,10.5937724 L275.656232,10.5937724 C275.836689,10.5937724 275.984356,10.741439 275.984356,10.9218966 L275.984356,14.6871274 L277.72068,15.950411 C277.868347,16.0570353 277.898414,16.2621129 277.791763,16.4097795 L277.020692,17.4707092 C276.914041,17.6156253 276.708964,17.6484431 276.561297,17.5417921 Z" id="" fill="#FFFFFF" fill-rule="nonzero" opacity="0.2"></path>
        </g>
    </g>
</svg>