<?xml version="1.0" encoding="UTF-8"?>
<svg width="26px" height="26px" viewBox="0 0 26 26" version="1.1" xmlns="http://www.w3.org/2000/svg" xmlns:xlink="http://www.w3.org/1999/xlink">
    <!-- Generator: Sketch 61.2 (89653) - https://sketch.com -->
    <title>icMedallaGreenM</title>
    <desc>Created with Sketch.</desc>
    <g id="Intermed-2019-(Web)" stroke="none" stroke-width="1" fill="none" fill-rule="evenodd">
        <g id="icMedallaGreenM">
            <rect id="Rectangle-Copy-45" fill="#77CB93" x="0" y="0" width="25.6" height="25.6" rx="12.8"></rect>
            <path d="M7.78825108,18.0367432 C7.822001,17.9557522 8.25848678,16.959009 9.40598404,15.9982569 C10.1349911,16.9859913 11.520979,17.9287479 13.3412335,17.7352571 C16.873725,17.478749 19.3599691,14.3107609 19.3599691,10.4317614 C19.3599691,9.30225966 19.1169741,8.13226245 18.6894751,7.17827791 C18.5634622,6.89702858 18.2034631,6.8857786 18.052731,7.15127358 C17.3552327,8.36402947 16.1064856,9.12001888 14.6799803,9.12001888 L12.8799846,9.12001888 C10.4949902,9.12001888 8.55999485,11.0550143 8.55999485,13.4400086 C8.55999485,13.5975082 8.57799041,13.7482622 8.59374477,13.9012575 C10.029237,12.8730055 12.1014952,12.000012 15.0399794,12.000012 C15.2379745,12.000012 15.3999785,12.162016 15.3999785,12.3600112 C15.3999785,12.5580063 15.2379745,12.7200103 15.0399794,12.7200103 C9.3834841,12.7200103 6.98499861,16.1872432 6.45400866,17.4899989 C6.30549583,17.8567437 6.48099102,18.2752558 6.84775772,18.4259879 C7.21674366,18.5790051 7.63525584,18.4012468 7.78825108,18.0367432 Z" id="" fill="#FFFFFF" fill-rule="nonzero"></path>
        </g>
    </g>
</svg>