<?xml version="1.0" encoding="UTF-8"?>
<svg width="187px" height="200px" viewBox="0 0 187 200" version="1.1" xmlns="http://www.w3.org/2000/svg" xmlns:xlink="http://www.w3.org/1999/xlink">
    <!-- Generator: Sketch 61.2 (89653) - https://sketch.com -->
    <title>icFotoDePerfilPacientePH</title>
    <desc>Created with Sketch.</desc>
    <g id="Intermed-2019-(Web)" stroke="none" stroke-width="1" fill="none" fill-rule="evenodd" opacity="0.2" stroke-linecap="round" stroke-linejoin="round">
        <g id="icFotoDePerfilPacientePH" transform="translate(2.000000, 2.000000)" stroke="#565656" stroke-width="3.3">
            <path d="M111.42978,87.00967 L111.41878,95.77667 C105.86268,101.01267 98.48278,104.20267 90.36478,104.20267 C82.13678,104.19167 74.66778,100.92467 69.10178,95.58967 L69.12378,52.33767 C70.26778,52.79967 71.48768,52.92067 72.69878,52.65667 C72.97378,52.60167 73.23668,52.51367 73.50178,52.40367 C73.53478,52.83267 73.56778,53.27267 73.61178,53.71267 C74.01878,61.72067 76.19678,72.72067 84.01778,81.26767 C91.56268,89.51767 103.17978,91.14567 111.42978,87.00967 Z" id="Stroke-1"></path>
            <path d="M111.42978,78.65011 L111.42978,87.01011 C103.17978,91.14611 91.56268,89.51811 84.01778,81.26811 C76.19678,72.72111 74.01878,61.72111 73.61178,53.71311 C73.56778,53.27311 73.53478,52.83311 73.50178,52.40411 C73.57878,52.38211 73.66678,52.34911 73.74378,52.31611 C74.90978,59.14711 77.59378,66.86911 83.41168,73.21611 C91.14688,81.66411 103.14678,83.18211 111.42978,78.65011 Z" id="Stroke-3"></path>
            <path d="M73.744,52.31567 C73.667,52.34867 73.579,52.38167 73.5009,52.40367 C73.4129,51.25967 73.337,50.13767 73.282,49.04867 C73.3139,49.24667 73.337,49.45567 73.3579,49.66467 C73.4129,50.10467 73.469,50.53367 73.535,50.97367 C73.5889,51.41367 73.667,51.86467 73.744,52.31567 Z" id="Stroke-5"></path>
            <path d="M182.79767,156.17811 C174.86667,165.25311 165.53867,173.07411 155.15467,179.31111 C154.92367,179.46511 154.68167,179.59711 154.43967,179.74011 C154.15367,179.91611 153.86767,180.08111 153.57177,180.24611 C136.56467,190.10211 116.83067,195.73411 95.76567,195.73411 C94.44677,195.73411 93.13667,195.71211 91.82767,195.65711 C90.48567,195.62411 89.14367,195.55811 87.82367,195.44811 C84.35867,195.22811 80.93657,194.84311 77.57167,194.30411 C64.51467,192.24711 52.19577,187.99011 40.98567,181.94011 C40.78657,181.84111 40.58967,181.73111 40.39167,181.61011 C39.89667,181.34611 39.40167,181.07111 38.90667,180.78511 C27.37867,174.26211 17.09367,165.80311 8.47077,155.87011 C5.64267,152.60311 2.99167,149.18211 0.54967,145.61811 C4.93867,135.42111 11.06567,130.22911 19.11767,125.03711 C20.87767,123.89311 35.56157,115.07111 48.80667,107.12911 C51.35867,105.60011 53.84577,104.11511 56.18657,102.70711 C61.63377,99.45111 66.23067,96.70111 68.71667,95.21611 C68.84867,95.33711 68.97077,95.46911 69.10167,95.59011 C74.66767,100.92511 82.13667,104.19211 90.36467,104.20311 C98.48377,104.20311 105.86367,101.01311 111.41867,95.77711 C111.61667,95.61211 111.81467,95.42511 112.00167,95.23811 C116.57767,98.31811 125.74067,104.47811 134.59677,110.41811 C137.62177,112.45311 140.60167,114.45511 143.35167,116.29211 L143.35167,116.30311 C149.99677,120.74711 155.29767,124.28911 156.55167,125.08111 C172.45877,135.14611 179.34367,142.40611 182.79767,156.17811 Z" id="Stroke-7"></path>
            <path d="M153.57144,180.246 C136.56434,190.102 116.83144,195.734 95.76534,195.734 C94.44644,195.734 93.13744,195.712 91.82734,195.657 C90.48534,195.624 89.14444,195.558 87.82334,195.448 C83.61034,183.579 79.01234,170.632 77.58344,166.617 L48.80744,107.129 C51.35834,105.6 53.84544,104.115 56.18734,102.707 L87.22934,166.617 L134.57334,166.639 L143.34034,166.639 C145.42044,169.389 149.19344,174.405 153.57144,180.246 Z" id="Stroke-9"></path>
            <path d="M143.33836,166.63823 L143.35486,116.29673 C140.59826,114.45093 137.61616,112.45003 134.59446,110.42273 L134.57466,166.63603 L143.33836,166.63823 Z" id="Stroke-11"></path>
            <path d="M40.98578,181.94 C40.78668,181.841 40.58978,181.731 40.39178,181.61 L41.02978,178.937 L43.16268,169.983 C43.20888,169.796 43.38378,169.697 43.55978,169.73 C43.73578,169.774 43.84688,169.95 43.80178,170.126 L41.87678,178.211 L40.98578,181.94 Z" id="Stroke-13"></path>
            <path d="M155.15478,179.31089 C154.92378,179.46489 154.68178,179.59689 154.43978,179.73989 C155.27468,172.77689 155.08768,167.66189 153.60378,159.59889 C152.07478,151.29389 148.80778,135.17889 148.77478,135.01389 C148.73078,134.83789 148.85178,134.66189 149.02778,134.62889 C149.20378,134.59589 149.37978,134.70589 149.42378,134.88189 C149.45678,135.04689 152.71168,151.16189 154.25278,159.47789 C155.71578,167.43089 155.93578,172.53489 155.15478,179.31089 Z" id="Stroke-15"></path>
            <path d="M87.82378,195.44778 C84.35878,195.22778 80.93668,194.84278 77.57178,194.30378 L77.58278,166.61678 C79.01168,170.63178 83.61078,183.57878 87.82378,195.44778 Z" id="Stroke-17"></path>
            <path d="M120.30711,43.14178 C120.30711,49.69778 121.01111,56.14378 120.60411,63.60178 C120.21911,70.77378 116.53301,75.86678 111.43011,78.64978 C103.14601,83.18178 91.14611,81.66378 83.41201,73.21578 C77.59411,66.86878 74.90901,59.14678 73.74411,52.31578 C73.66711,51.86478 73.58901,51.41378 73.53401,50.97378 C73.46911,50.53378 73.41301,50.10478 73.35801,49.66478 C73.33711,49.45578 73.31401,49.24678 73.28211,49.04878 C73.28211,49.00478 73.28211,48.96078 73.27111,48.91678 C73.16111,47.88278 73.08301,46.89278 73.02911,45.93578 C72.90811,43.63678 72.91911,41.56878 72.99611,39.87478 C81.81811,38.78578 88.67111,30.77778 88.67111,21.06478 C88.67111,19.09578 88.38401,17.20378 87.86811,15.42178 L118.68901,15.43278 C119.61301,17.57778 120.23011,19.86578 120.51501,22.18678 C121.61501,31.15178 120.30711,38.41178 120.30711,43.14178 Z" id="Stroke-19"></path>
            <path d="M101.1527,30.59925 C101.2143,30.59925 101.2737,30.57395 101.3166,30.52445 C101.3991,30.43315 101.3892,30.29455 101.2979,30.21315 C98.0518,27.36965 92.5804,28.25845 90.6191,30.21975 C90.5333,30.30555 90.5333,30.44525 90.6191,30.53105 C90.7049,30.61795 90.8446,30.61795 90.9293,30.53105 C92.7795,28.68415 97.9385,27.85695 101.0064,30.54425 C101.0482,30.58055 101.0999,30.59925 101.1527,30.59925 Z" id="Stroke-21"></path>
            <path d="M97.29731,36.58908 C97.29511,37.38218 96.65271,38.02458 95.85961,38.02458 C95.06761,38.02458 94.42521,37.38108 94.42521,36.58798 C94.42631,35.79488 95.06871,35.15138 95.85961,35.1524786 C96.65381,35.1524786 97.29731,35.79598 97.29731,36.58908 Z" id="Stroke-23"></path>
            <path d="M113.7114,30.21788 C113.6432,30.29818 113.6355,30.43678 113.6938,30.52808 C113.729,30.57758 113.7752,30.60398 113.8214,30.60398 C113.8599,30.60398 113.8984,30.58528 113.9292,30.54898 C115.9664,28.19058 119.2169,28.54368 120.9263,29.91538 C120.9296,29.75368 120.934,29.59198 120.9395,29.43248 C119.0882,28.08828 115.797,27.80338 113.7114,30.21788 Z" id="Stroke-25"></path>
            <path d="M116.730013,36.59546 C116.72782,37.38856 117.21292,38.03096 117.81242,38.03206 C118.41192,38.03206 118.89922,37.38856 118.89922,36.59546 C118.89922,35.80236 118.41192,35.15886 117.81352,35.15886 C117.21402,35.15886 116.730013,35.80126 116.730013,36.59546 Z" id="Stroke-27"></path>
            <path d="M77.1890884,52.62928 C77.18579,59.12698 82.45149,64.39598 88.94809,64.3981807 C95.44799,64.40038 100.71699,59.13468 100.719191,52.63698 C100.72139,46.14038 95.45349,40.87138 88.95579,40.8691793 C82.46029,40.86698 77.19129,46.13268 77.1890884,52.62928 Z" id="Stroke-29"></path>
            <path d="M120.30711,43.14607 C120.30821,42.51027 120.33241,41.82167 120.37201,41.09787 C117.23371,42.77317 115.01501,46.84317 115.01391,51.60727 C115.01391,56.51657 117.36461,60.68447 120.65251,62.26297 C120.91431,55.37147 120.30491,49.30387 120.30711,43.14607 Z" id="Stroke-31"></path>
            <path d="M109.3587,51.80219 C109.417,51.80219 109.4731,51.77909 109.5182,51.73399 C109.5259,51.72409 110.4565,50.74509 111.0857,50.01359 C112.9766,47.81689 113.1856,46.81039 112.3287,44.02409 C111.76,42.16949 109.3972,34.11969 109.3752,34.03829 C109.3378,33.92169 109.2234,33.85569 109.1013,33.88869 C108.9836,33.92279 108.9187,34.04379 108.9517,34.16149 C108.9748,34.24179 111.3387,42.29599 111.9074,44.15389 C112.7159,46.77519 112.5322,47.65959 110.7546,49.72539 C110.1298,50.45029 109.2069,51.42049 109.1981,51.43039 C109.1145,51.51839 109.1178,51.65699 109.2058,51.74169 C109.2487,51.78129 109.3026,51.80219 109.3587,51.80219 Z" id="Stroke-33"></path>
            <path d="M87.86789,15.42156 C88.38489,17.20356 88.67089,19.09556 88.67089,21.06456 C88.67089,30.77756 81.81789,38.78556 72.99589,39.87456 C73.13779,36.83856 73.45789,34.96856 73.45789,34.96856 C73.45789,34.96856 73.45789,34.83656 73.46889,34.60556 C71.96189,33.63756 70.23489,33.24156 68.54089,33.60456 C67.96889,33.72556 67.42989,33.93456 66.93489,34.20956 C66.80289,34.28656 66.67089,34.36356 66.53779,34.45156 C65.43779,30.45856 65.21889,26.53156 65.49389,23.78156 C66.05489,18.41356 67.96889,13.96956 70.84979,10.47156 C70.87289,10.43856 70.90589,10.40556 70.92789,10.37256 C71.30079,9.93256 71.68689,9.50356 72.08289,9.09656 C72.12579,9.05256 72.17089,8.99756 72.21489,8.95356 C73.06189,8.09556 73.97489,7.31456 74.94289,6.59956 C75.06279,6.51156 75.17389,6.43456 75.29489,6.34656 C75.66889,6.08256 76.04289,5.82956 76.42789,5.58756 C76.55989,5.49956 76.69189,5.41156 76.83489,5.33456 C77.34089,5.02656 77.84689,4.74056 78.37489,4.46556 C78.56189,4.36656 78.77089,4.27856 78.96889,4.17956 C90.43089,-1.47444 102.26689,-0.27544 111.24289,6.04956 C114.45489,8.30456 116.88589,11.45056 118.49189,14.98156 L118.50289,14.99256 L118.66789,15.38856 C118.67889,15.39956 118.67889,15.42156 118.68989,15.43256 L87.86789,15.42156 Z" id="Stroke-35"></path>
            <path d="M73.50123,52.40367 C73.23723,52.51367 72.97433,52.60167 72.69933,52.65667 C71.48823,52.92067 70.26833,52.79967 69.12433,52.33767 C66.38423,51.30367 64.04123,48.44367 63.22723,44.73667 C62.29333,40.41367 63.73323,36.27767 66.53823,34.45167 C66.67133,34.36367 66.80223,34.28667 66.93423,34.20967 C67.42923,33.93467 67.96933,33.72567 68.54023,33.60467 C70.23423,33.24167 71.96233,33.63767 73.46933,34.60567 C73.45833,34.83667 73.45833,34.96867 73.45833,34.96867 C73.45833,34.96867 73.13823,36.83867 72.99633,39.87467 C72.91933,41.56867 72.90833,43.63667 73.02823,45.93567 C73.08323,46.89267 73.16023,47.88267 73.27133,48.91667 C73.28233,48.96067 73.28233,49.00467 73.28233,49.04867 C73.33733,50.13767 73.41323,51.25967 73.50123,52.40367 Z" id="Stroke-37"></path>
            <path d="M73.744,52.31567 C73.667,52.34867 73.579,52.38167 73.5009,52.40367 C73.4129,51.25967 73.337,50.13767 73.282,49.04867 C73.3139,49.24667 73.337,49.45567 73.3579,49.66467 C73.4129,50.10467 73.469,50.53367 73.535,50.97367 C73.5889,51.41367 73.667,51.86467 73.744,52.31567 Z" id="Stroke-39"></path>
            <path d="M107.94069,59.7535404 C111.20989,59.75464 113.88069,57.22134 114.11499,54.01154 L101.76859,54.00714 C102.00069,57.21804 104.66929,59.75244 107.94069,59.7535404 Z" id="Stroke-41"></path>
        </g>
    </g>
</svg>